Tidy Topic Modeling
…
This vandal has torn the books into individual chapters, and left them in one large pile. How can we restore these disorganized chapters to their original books?

Setup

library(dplyr)
library(gutenbergr)

titles <- c("Twenty Thousand Leagues under the Sea", "The War of the Worlds",
            "Pride and Prejudice", "Great Expectations")
books <- gutenberg_works(title %in% titles) %>%
  gutenberg_download(meta_fields = "title")

books

## # A tibble: 51,663 × 3
##    gutenberg_id                                                        text                 title
##           <int>                                                       <chr>                 <chr>
## 1            36                                       The War of the Worlds The War of the Worlds
## 2            36                                                             The War of the Worlds
## 3            36                                       by H. G. Wells [1898] The War of the Worlds
## 4            36                                                             The War of the Worlds
## 5            36                                                             The War of the Worlds
## 6            36              But who shall dwell in these worlds if they be The War of the Worlds
## 7            36             inhabited? .  .  .  Are we or they Lords of the The War of the Worlds
## 8            36      World? .  .  .  And how are all things made for man?-- The War of the Worlds
## 9            36                KEPLER (quoted in The Anatomy of Melancholy) The War of the Worlds
## 10           36                                                             The War of the Worlds
## # ... with 51,653 more rows
…
by_chapter_word <- by_chapter %>%
  unite(title_chapter, title, chapter) %>%
  unnest_tokens(word, text)

word_counts <- by_chapter_word %>%
  anti_join(stop_words) %>%
  count(title_chapter, word, sort = TRUE) %>%
  ungroup()

word_counts

## # A tibble: 104,721 × 3
##               title_chapter    word     n
##                       <chr>   <chr> <int>
## 1     Great Expectations_57     joe    88
## 2      Great Expectations_7     joe    70
## 3     Great Expectations_17   biddy    63
## 4     Great Expectations_27     joe    58
## 5     Great Expectations_38 estella    58
## 6      Great Expectations_2     joe    56
## 7     Great Expectations_23  pocket    53
## 8     Great Expectations_15     joe    50
## 9     Great Expectations_18     joe    50
## 10 The War of the Worlds_16 brother    50
## # ... with 104,711 more rows
…
library(topicmodels)
chapters_lda <- LDA(chapters_dtm, k = 4, control = list(seed = 1234))
chapters_lda

## A LDA_VEM topic model with 4 topics.

(In this case we know there are four topics because there are four books; in practice we may need to try a few different values of k).

Now tidytext gives us the option of returning to a tidy analysis, using the tidy and augment verbs borrowed from the broom package. In particular, we start with the tidy verb.

chapters_lda_td <- tidy(chapters_lda)
chapters_lda_td

## # A tibble: 72,860 × 3
##    topic    term         beta
##    <int>   <chr>        <dbl>
## 1      1     joe 2.479998e-22
## 2      2     joe 8.740236e-65
## 3      3     joe 1.122876e-25
## 4      4     joe 1.421187e-02
## 5      1   biddy 3.217760e-31
## 6      2   biddy 6.307844e-77
## 7      3   biddy 2.764079e-50
## 8      4   biddy 4.689302e-03
## 9      1 estella 1.850492e-07
## 10     2 estella 3.488596e-73
## # ... with 72,850 more rows
…
These topics are pretty clearly associated with the four books! There’s no question that the topic of “nemo”, “sea”, and “nautilus” belongs to Twenty Thousand Leagues Under the Sea, and that “jane”, “darcy”, and “elizabeth” belongs to Pride and Prejudice. We see “pip” and “joe” from Great Expectations and “martians”, “black”, and “night” from The War of the Worlds.

Per-document classification

Each chapter was a “document” in this analysis. Thus, we may want to know which topics are associated with each document. Can we put the chapters back together in the correct books?

chapters_lda_gamma <- tidy(chapters_lda, matrix = "gamma")
chapters_lda_gamma

## # A tibble: 772 × 3
##                    document topic        gamma
##                       <chr> <int>        <dbl>
## 1     Great Expectations_57     1 1.183472e-05
## 2      Great Expectations_7     1 1.287508e-05
## 3     Great Expectations_17     1 1.853388e-05
## 4     Great Expectations_27     1 1.680594e-05
## 5     Great Expectations_38     1 3.420291e-01
## 6      Great Expectations_2     1 1.508989e-05
## 7     Great Expectations_23     1 5.333548e-01
## 8     Great Expectations_15     1 1.258855e-05
## 9     Great Expectations_18     1 1.113576e-05
## 10 The War of the Worlds_16     1 9.492523e-06
## # ... with 762 more rows

Setting matrix = "gamma" returns a tidied version with one-document-per-topic-per-row. Now that we have these document classifiations, we can see how well our unsupervised learning did at distinguishing the four books. First we re-separate the document name into title and chapter:

chapters_lda_gamma <- chapters_lda_gamma %>%
  separate(document, c("title", "chapter"), sep = "_", convert = TRUE)
chapters_lda_gamma

## # A tibble: 772 × 4
##                    title chapter topic        gamma
## *                  <chr>   <int> <int>        <dbl>
## 1     Great Expectations      57     1 1.183472e-05
## 2     Great Expectations       7     1 1.287508e-05
## 3     Great Expectations      17     1 1.853388e-05
## 4     Great Expectations      27     1 1.680594e-05
## 5     Great Expectations      38     1 3.420291e-01
## 6     Great Expectations       2     1 1.508989e-05
## 7     Great Expectations      23     1 5.333548e-01
## 8     Great Expectations      15     1 1.258855e-05
## 9     Great Expectations      18     1 1.113576e-05
## 10 The War of the Worlds      16     1 9.492523e-06
## # ... with 762 more rows
…
We notice that almost all of the chapters from Pride and Prejudice, War of the Worlds, and Twenty Thousand Leagues Under the Sea were uniquely identified as a single topic each.

chapter_classifications <- chapters_lda_gamma %>%
  group_by(title, chapter) %>%
  top_n(1, gamma) %>%
  ungroup() %>%
  arrange(gamma)

chapter_classifications

## # A tibble: 193 × 4
##                 title chapter topic     gamma
##                 <chr>   <int> <int>     <dbl>
## 1  Great Expectations      54     3 0.5078902
## 2  Great Expectations      23     1 0.5333548
## 3  Great Expectations      22     4 0.5432274
## 4  Great Expectations      31     4 0.5490885
## 5  Great Expectations      33     4 0.5895732
## 6  Great Expectations      56     4 0.5940343
## 7  Great Expectations      47     4 0.6290204
## 8  Great Expectations      38     4 0.6579485
## 9  Great Expectations      11     4 0.6769217
## 10 Great Expectations      44     4 0.6962118
## # ... with 183 more rows
…
One important step in the topic modeling expectation-maximization algorithm is assigning each word in each document to a topic. The more words in a document are assigned to that topic, generally, the more weight (gamma) will go on that document-topic classification.

We may want to take the original document-word pairs and find which words in each document were assigned to which topic. This is the job of the augment verb.

assignments <- augment(chapters_lda, data = chapters_dtm)

We can combine this with the consensus book titles to find which words were incorrectly classified.

assignments <- assignments %>%
  separate(document, c("title", "chapter"), sep = "_", convert = TRUE) %>%
  inner_join(book_topics, by = c(".topic" = "topic"))

assignments

## # A tibble: 104,721 × 6
##                 title chapter  term count .topic          consensus
##                 <chr>   <int> <chr> <dbl>  <dbl>              <chr>
## 1  Great Expectations      57   joe    88      4 Great Expectations
## 2  Great Expectations       7   joe    70      4 Great Expectations
## 3  Great Expectations      17   joe     5      4 Great Expectations
## 4  Great Expectations      27   joe    58      4 Great Expectations
## 5  Great Expectations       2   joe    56      4 Great Expectations
## 6  Great Expectations      23   joe     1      4 Great Expectations
## 7  Great Expectations      15   joe    50      4 Great Expectations
## 8  Great Expectations      18   joe    50      4 Great Expectations
## 9  Great Expectations       9   joe    44      4 Great Expectations
## 10 Great Expectations      13   joe    40      4 Great Expectations
## # ... with 104,711 more rows
…
We notice that almost all the words for Pride and Prejudice, Twenty Thousand Leagues Under the Sea, and War of the Worlds were correctly assigned, while Great Expectations had a fair amount of misassignment.

What were the most commonly mistaken words?

wrong_words <- assignments %>%
  filter(title != consensus)

wrong_words

## # A tibble: 4,035 × 6
##                                    title chapter    term count .topic
##                                    <chr>   <int>   <chr> <dbl>  <dbl>
## 1                     Great Expectations      38 brother     2      1
## 2                     Great Expectations      22 brother     4      1
## 3                     Great Expectations      23    miss     2      1
## 4                     Great Expectations      22    miss    23      1
## 5  Twenty Thousand Leagues under the Sea       8    miss     1      1
## 6                     Great Expectations      31    miss     1      1
## 7                     Great Expectations      46 captain     1      2
## 8                     Great Expectations      32 captain     1      2
## 9                  The War of the Worlds      17 captain     5      2
## 10                   Pride and Prejudice       7 captain     3      2
##                                consensus
##                                    <chr>
## 1                    Pride and Prejudice
## 2                    Pride and Prejudice
## 3                    Pride and Prejudice
## 4                    Pride and Prejudice
## 5                    Pride and Prejudice
## 6                    Pride and Prejudice
## 7  Twenty Thousand Leagues under the Sea
## 8  Twenty Thousand Leagues under the Sea
## 9  Twenty Thousand Leagues under the Sea
## 10 Twenty Thousand Leagues under the Sea
## # ... with 4,025 more rows

wrong_words %>%
  count(title, consensus, term, wt = count) %>%
  ungroup() %>%
  arrange(desc(n))

## # A tibble: 3,197 × 4
##                 title             consensus    term     n
##                 <chr>                 <chr>   <chr> <dbl>
## 1  Great Expectations   Pride and Prejudice    love    42
## 2  Great Expectations   Pride and Prejudice    lady    29
## 3  Great Expectations   Pride and Prejudice    miss    26
## 4  Great Expectations The War of the Worlds    boat    25
## 5  Great Expectations The War of the Worlds    tide    20
## 6  Great Expectations   Pride and Prejudice  father    19
## 7  Great Expectations The War of the Worlds   water    19
## 8  Great Expectations   Pride and Prejudice flopson    18
## 9  Great Expectations The War of the Worlds  galley    16
## 10 Great Expectations   Pride and Prejudice  family    15
## # ... with 3,187 more rows
…
